<svg xmlns="http://www.w3.org/2000/svg" xmlns:xlink="http://www.w3.org/1999/xlink" preserveAspectRatio="xMidYMid" width="15" height="15" viewBox="0 0 15 15">
  <defs>
    <style>
      .cls-1 {
        fill: #fff;
        fill-rule: evenodd;
      }
    </style>
  </defs>
  <path d="M14.575,14.577 C14.313,14.837 13.951,14.999 13.554,14.999 L1.444,14.999 C1.047,14.999 0.685,14.837 0.423,14.577 C0.162,14.316 -0.001,13.956 -0.001,13.560 L-0.001,5.117 C-0.001,4.988 0.105,4.884 0.233,4.884 C0.363,4.884 0.468,4.989 0.468,5.117 L0.468,13.560 C0.468,13.827 0.579,14.070 0.755,14.246 C0.932,14.423 1.176,14.533 1.444,14.533 L13.554,14.533 C13.822,14.533 14.067,14.423 14.244,14.246 C14.420,14.070 14.530,13.827 14.530,13.560 L14.530,5.117 C14.530,4.988 14.635,4.884 14.765,4.884 C14.894,4.884 14.999,4.989 14.999,5.117 L14.999,13.560 C14.999,13.956 14.836,14.316 14.575,14.577 ZM12.942,9.708 L12.948,9.708 C13.078,9.708 13.183,9.813 13.183,9.942 L13.183,12.950 L13.183,12.957 C13.183,13.086 13.077,13.190 12.948,13.190 L10.230,13.190 L10.224,13.190 C10.094,13.190 9.989,13.085 9.989,12.957 L9.989,9.948 L9.989,9.942 C9.989,9.813 10.094,9.708 10.223,9.708 L12.942,9.708 ZM10.458,12.724 L12.714,12.724 L12.714,10.176 L10.458,10.176 L10.458,12.724 ZM9.989,5.726 L9.989,5.720 C9.989,5.592 10.094,5.487 10.223,5.487 L12.942,5.487 L12.948,5.487 C13.078,5.487 13.183,5.592 13.183,5.720 L13.183,8.729 L13.183,8.735 C13.183,8.864 13.077,8.969 12.948,8.969 L10.230,8.969 L10.224,8.969 C10.094,8.969 9.989,8.864 9.989,8.735 L9.989,5.726 ZM10.458,8.502 L12.714,8.502 L12.714,5.954 L10.458,5.954 L10.458,8.502 ZM6.136,9.708 L8.855,9.708 L8.861,9.708 C8.991,9.708 9.096,9.813 9.096,9.942 L9.096,12.950 L9.096,12.957 C9.096,13.086 8.990,13.190 8.861,13.190 L6.142,13.190 L6.136,13.190 C6.007,13.190 5.902,13.085 5.902,12.957 L5.902,9.948 L5.902,9.942 C5.902,9.813 6.007,9.708 6.136,9.708 ZM6.370,12.724 L8.627,12.724 L8.627,10.176 L6.370,10.176 L6.370,12.724 ZM5.902,5.726 L5.902,5.720 C5.902,5.592 6.007,5.487 6.136,5.487 L8.855,5.487 L8.861,5.487 C8.991,5.487 9.096,5.592 9.096,5.720 L9.096,8.729 L9.096,8.735 C9.096,8.864 8.990,8.969 8.861,8.969 L6.142,8.969 L6.136,8.969 C6.007,8.969 5.902,8.864 5.902,8.735 L5.902,5.726 ZM6.370,8.502 L8.627,8.502 L8.627,5.954 L6.370,5.954 L6.370,8.502 ZM4.769,9.708 L4.774,9.708 C4.904,9.708 5.009,9.813 5.009,9.942 L5.009,12.950 L5.009,12.957 C5.009,13.086 4.903,13.190 4.774,13.190 L2.056,13.190 L2.050,13.190 C1.920,13.190 1.815,13.085 1.815,12.957 L1.815,9.948 L1.815,9.942 C1.815,9.813 1.920,9.708 2.050,9.708 L4.769,9.708 ZM2.284,12.724 L4.540,12.724 L4.540,10.176 L2.284,10.176 L2.284,12.724 ZM1.815,5.726 L1.815,5.720 C1.815,5.592 1.920,5.487 2.050,5.487 L4.769,5.487 L4.774,5.487 C4.904,5.487 5.009,5.592 5.009,5.720 L5.009,8.729 L5.009,8.735 C5.009,8.864 4.903,8.969 4.774,8.969 L2.056,8.969 L2.050,8.969 C1.920,8.969 1.815,8.864 1.815,8.735 L1.815,5.726 ZM2.284,8.502 L4.540,8.502 L4.540,5.954 L2.284,5.954 L2.284,8.502 ZM14.764,4.145 L0.239,4.145 L0.233,4.145 C0.104,4.145 -0.001,4.040 -0.001,3.911 L-0.001,2.607 C-0.001,2.222 0.156,1.868 0.410,1.608 L0.425,1.591 C0.686,1.330 1.048,1.168 1.444,1.168 L3.749,1.168 L3.749,0.233 C3.749,0.105 3.854,-0.000 3.983,-0.000 C4.113,-0.000 4.218,0.105 4.218,0.233 L4.218,2.751 C4.218,2.880 4.113,2.984 3.983,2.984 C3.854,2.984 3.749,2.879 3.749,2.751 L3.749,1.635 L1.444,1.635 C1.178,1.635 0.934,1.745 0.756,1.922 L0.745,1.933 C0.574,2.108 0.468,2.347 0.468,2.607 L0.468,3.678 L14.530,3.678 L14.530,2.607 C14.530,2.341 14.419,2.098 14.242,1.922 L14.230,1.910 C14.054,1.740 13.814,1.635 13.553,1.635 L11.950,1.635 C11.821,1.635 11.716,1.530 11.716,1.402 C11.716,1.273 11.822,1.168 11.950,1.168 L13.553,1.168 C13.940,1.168 14.296,1.325 14.557,1.577 L14.573,1.592 C14.835,1.853 14.998,2.212 14.998,2.607 L14.998,3.905 L14.998,3.911 C14.998,4.040 14.893,4.145 14.764,4.145 ZM11.014,2.984 C10.885,2.984 10.780,2.879 10.780,2.751 L10.780,1.635 L4.920,1.635 C4.791,1.635 4.685,1.530 4.685,1.402 C4.685,1.273 4.791,1.168 4.920,1.168 L10.780,1.168 L10.780,0.233 C10.780,0.105 10.885,-0.000 11.014,-0.000 C11.144,-0.000 11.249,0.105 11.249,0.233 L11.249,2.751 L11.249,2.751 C11.249,2.880 11.144,2.984 11.014,2.984 Z" class="cls-1"/>
</svg>
